Community Composition Analysis and Cross Plot
…
combined_df <- dbh_df %>%
  left_join(density_df, by = c("Location", "Plot")) %>%
  left_join(ba_df, by = c("Location", "Plot"))

print(combined_df)

# A tibble: 21 × 5
   Location             Plot       mean_DBH mean_density mean_BA
   <fct>                <fct>         <dbl>        <dbl>   <dbl>
 1 Gardiner County Park Edge           9.35           32    72.2
 2 Gardiner County Park Transition    15.5            28   196. 
 3 Gardiner County Park Interior      15.1            11   101. 
 4 Haven Point          Edge          12.7            13    64.4
 5 Haven Point          Transition    24.5            10   153. 
 6 Haven Point          Interior      29.5             8   240. 
 7 Ludlow Creek         Edge          19.5            13   115. 
 8 Ludlow Creek         Transition    17.3            21   134. 
 9 Ludlow Creek         Interior      15.7            27   149. 
10 Pine Neck            Edge          12.8             7    23.3
# ℹ 11 more rows
…
